EESchema Schematic File Version 2
LIBS:power
LIBS:device
LIBS:transistors
LIBS:conn
LIBS:linear
LIBS:regul
LIBS:74xx
LIBS:cmos4000
LIBS:adc-dac
LIBS:memory
LIBS:xilinx
LIBS:microcontrollers
LIBS:dsp
LIBS:microchip
LIBS:analog_switches
LIBS:motorola
LIBS:texas
LIBS:intel
LIBS:audio
LIBS:interface
LIBS:digital-audio
LIBS:philips
LIBS:display
LIBS:cypress
LIBS:siliconi
LIBS:opto
LIBS:atmel
LIBS:contrib
LIBS:valves
LIBS:ArduProMiniTKB
LIBS:relays
LIBS:ConvertACDC
LIBS:arduijournuit-cache
EELAYER 25 0
EELAYER END
$Descr A4 11693 8268
encoding utf-8
Sheet 1 1
Title "JourNuit"
Date ""
Rev ""
Comp ""
Comment1 ""
Comment2 ""
Comment3 ""
Comment4 ""
$EndDescr
$Comp
L R R1
U 1 1 57226DEA
P 5250 1700
F 0 "R1" V 5330 1700 50  0000 C CNN
F 1 "68k" V 5250 1700 50  0000 C CNN
F 2 "Resistors_ThroughHole:Resistor_Vertical_RM5mm" V 5180 1700 50  0001 C CNN
F 3 "" H 5250 1700 50  0000 C CNN
	1    5250 1700
	0    1    1    0   
$EndComp
$Comp
L R R4
U 1 1 57226EF9
P 5650 1950
F 0 "R4" V 5730 1950 50  0000 C CNN
F 1 "4.3k" V 5650 1950 50  0000 C CNN
F 2 "Resistors_ThroughHole:Resistor_Vertical_RM5mm" V 5580 1950 50  0001 C CNN
F 3 "" H 5650 1950 50  0000 C CNN
	1    5650 1950
	1    0    0    -1  
$EndComp
$Comp
L R R3
U 1 1 57226F4E
P 5650 1450
F 0 "R3" V 5730 1450 50  0000 C CNN
F 1 "4.3k" V 5650 1450 50  0000 C CNN
F 2 "Resistors_ThroughHole:Resistor_Vertical_RM5mm" V 5580 1450 50  0001 C CNN
F 3 "" H 5650 1450 50  0000 C CNN
	1    5650 1450
	1    0    0    -1  
$EndComp
$Comp
L GND #PWR01
U 1 1 57227071
P 5650 2250
F 0 "#PWR01" H 5650 2000 50  0001 C CNN
F 1 "GND" H 5650 2100 50  0000 C CNN
F 2 "" H 5650 2250 50  0000 C CNN
F 3 "" H 5650 2250 50  0000 C CNN
	1    5650 2250
	1    0    0    -1  
$EndComp
$Comp
L +5V #PWR02
U 1 1 572270C4
P 5650 1150
F 0 "#PWR02" H 5650 1000 50  0001 C CNN
F 1 "+5V" H 5650 1290 50  0000 C CNN
F 2 "" H 5650 1150 50  0000 C CNN
F 3 "" H 5650 1150 50  0000 C CNN
	1    5650 1150
	1    0    0    -1  
$EndComp
$Comp
L C C1
U 1 1 572270F1
P 4950 1700
F 0 "C1" H 4975 1800 50  0000 L CNN
F 1 "10nF 400V" V 4800 1550 50  0000 L CNN
F 2 "Capacitors_ThroughHole:C_Rect_L13_W4_P10" H 4988 1550 50  0001 C CNN
F 3 "" H 4950 1700 50  0000 C CNN
	1    4950 1700
	0    1    1    0   
$EndComp
$Comp
L VDD #PWR03
U 1 1 57227190
P 3950 1700
F 0 "#PWR03" H 3950 1550 50  0001 C CNN
F 1 "VDD" H 3950 1850 50  0000 C CNN
F 2 "" H 3950 1700 50  0000 C CNN
F 3 "" H 3950 1700 50  0000 C CNN
	1    3950 1700
	0    -1   -1   0   
$EndComp
$Comp
L R R5
U 1 1 57227586
P 6050 1700
F 0 "R5" V 6130 1700 50  0000 C CNN
F 1 "100k" V 6050 1700 50  0000 C CNN
F 2 "Resistors_ThroughHole:Resistor_Vertical_RM5mm" V 5980 1700 50  0001 C CNN
F 3 "" H 6050 1700 50  0000 C CNN
	1    6050 1700
	0    1    1    0   
$EndComp
$Comp
L C C2
U 1 1 572277E3
P 6500 1950
F 0 "C2" H 6525 2050 50  0000 L CNN
F 1 "10nF" H 6525 1850 50  0000 L CNN
F 2 "Capacitors_ThroughHole:C_Rect_L4_W2.5_P2.5" H 6538 1800 50  0001 C CNN
F 3 "" H 6500 1950 50  0000 C CNN
	1    6500 1950
	1    0    0    -1  
$EndComp
$Comp
L GND #PWR04
U 1 1 5722783A
P 6500 2250
F 0 "#PWR04" H 6500 2000 50  0001 C CNN
F 1 "GND" H 6500 2100 50  0000 C CNN
F 2 "" H 6500 2250 50  0000 C CNN
F 3 "" H 6500 2250 50  0000 C CNN
	1    6500 2250
	1    0    0    -1  
$EndComp
$Comp
L CONN_01X02 P1
U 1 1 57251923
P 1000 2750
F 0 "P1" H 1000 2900 50  0000 C CNN
F 1 "CONN_01X02" V 1100 2750 50  0000 C CNN
F 2 "Connect:bornier2" H 1000 2750 50  0001 C CNN
F 3 "" H 1000 2750 50  0000 C CNN
	1    1000 2750
	-1   0    0    1   
$EndComp
$Comp
L R R2
U 1 1 572527DB
P 5400 4200
F 0 "R2" V 5480 4200 50  0000 C CNN
F 1 "R" V 5400 4200 50  0000 C CNN
F 2 "Resistors_ThroughHole:Resistor_Vertical_RM5mm" V 5330 4200 50  0001 C CNN
F 3 "" H 5400 4200 50  0000 C CNN
	1    5400 4200
	0    1    1    0   
$EndComp
$Comp
L GND #PWR05
U 1 1 57252851
P 6000 4500
F 0 "#PWR05" H 6000 4250 50  0001 C CNN
F 1 "GND" H 6000 4350 50  0000 C CNN
F 2 "" H 6000 4500 50  0000 C CNN
F 3 "" H 6000 4500 50  0000 C CNN
	1    6000 4500
	1    0    0    -1  
$EndComp
$Comp
L D D1
U 1 1 572534B1
P 5750 3500
F 0 "D1" H 5750 3600 50  0000 C CNN
F 1 "1N4148" H 5750 3400 50  0000 C CNN
F 2 "Diodes_ThroughHole:Diode_DO-41_SOD81_Horizontal_RM10" H 5750 3500 50  0001 C CNN
F 3 "" H 5750 3500 50  0000 C CNN
	1    5750 3500
	0    1    1    0   
$EndComp
Text Label 7000 1700 0    60   ~ 0
A0
$Comp
L FUSE F1
U 1 1 572543DC
P 4250 1700
F 0 "F1" H 4350 1750 50  0000 C CNN
F 1 "FUSE" H 4150 1650 50  0000 C CNN
F 2 "Fuse_Holders_and_Fuses:Fuseholder5x20_horiz_SemiClosed_Casing10x25mm" H 4250 1700 50  0001 C CNN
F 3 "" H 4250 1700 50  0000 C CNN
	1    4250 1700
	1    0    0    -1  
$EndComp
$Comp
L BC547 Q1
U 1 1 572B84EA
P 5900 4200
F 0 "Q1" H 6100 4275 50  0000 L CNN
F 1 "BC547" H 6100 4200 50  0000 L CNN
F 2 "TO_SOT_Packages_THT:TO-92_Inline_Wide" H 6100 4125 50  0001 L CIN
F 3 "" H 5900 4200 50  0000 L CNN
	1    5900 4200
	1    0    0    -1  
$EndComp
$Comp
L R R8
U 1 1 574CBC7A
P 9550 2200
F 0 "R8" V 9630 2200 50  0000 C CNN
F 1 "560" V 9550 2200 50  0000 C CNN
F 2 "Resistors_ThroughHole:Resistor_Vertical_RM5mm" V 9480 2200 50  0001 C CNN
F 3 "" H 9550 2200 50  0000 C CNN
	1    9550 2200
	0    1    1    0   
$EndComp
$Comp
L R R7
U 1 1 574CBD01
P 9550 2000
F 0 "R7" V 9630 2000 50  0000 C CNN
F 1 "150" V 9550 2000 50  0000 C CNN
F 2 "Resistors_ThroughHole:Resistor_Vertical_RM5mm" V 9480 2000 50  0001 C CNN
F 3 "" H 9550 2000 50  0000 C CNN
	1    9550 2000
	0    1    1    0   
$EndComp
$Comp
L R R6
U 1 1 574CBD3A
P 9550 1800
F 0 "R6" V 9630 1800 50  0000 C CNN
F 1 "560" V 9550 1800 50  0000 C CNN
F 2 "Resistors_ThroughHole:Resistor_Vertical_RM5mm" V 9480 1800 50  0001 C CNN
F 3 "" H 9550 1800 50  0000 C CNN
	1    9550 1800
	0    1    1    0   
$EndComp
$Comp
L R R9
U 1 1 574CC5F7
P 9550 2400
F 0 "R9" V 9630 2400 50  0000 C CNN
F 1 "150" V 9550 2400 50  0000 C CNN
F 2 "Resistors_ThroughHole:Resistor_Vertical_RM5mm" V 9480 2400 50  0001 C CNN
F 3 "" H 9550 2400 50  0000 C CNN
	1    9550 2400
	0    1    1    0   
$EndComp
$Comp
L CONN_01X05 P5
U 1 1 574DF665
P 10400 2050
F 0 "P5" H 10400 2350 50  0000 C CNN
F 1 "CONN_01X05" V 10500 2050 50  0000 C CNN
F 2 "Pin_Headers:Pin_Header_Straight_1x05" H 10400 2050 50  0001 C CNN
F 3 "" H 10400 2050 50  0000 C CNN
	1    10400 2050
	1    0    0    -1  
$EndComp
$Comp
L GND #PWR06
U 1 1 574DFDB2
P 10200 2450
F 0 "#PWR06" H 10200 2200 50  0001 C CNN
F 1 "GND" H 10200 2300 50  0000 C CNN
F 2 "" H 10200 2450 50  0000 C CNN
F 3 "" H 10200 2450 50  0000 C CNN
	1    10200 2450
	1    0    0    -1  
$EndComp
$Comp
L RELAY_G5V-2 K1
U 1 1 574DFF1D
P 6650 3500
F 0 "K1" H 6600 3900 70  0000 C CNN
F 1 "RELAY_G5V-2" H 6900 3500 70  0000 C CNN
F 2 "Relays_ThroughHole:Relay_DPDT_Schrack-RT2_RM5mm" H 6650 3500 60  0001 C CNN
F 3 "" H 6650 3500 60  0000 C CNN
	1    6650 3500
	1    0    0    -1  
$EndComp
$Comp
L CONN_01X03 P2
U 1 1 5750A9CE
P 7800 3000
F 0 "P2" H 7800 3200 50  0000 C CNN
F 1 "CONN_01X03" V 7900 3000 50  0000 C CNN
F 2 "Connect:bornier3" H 7800 3000 50  0001 C CNN
F 3 "" H 7800 3000 50  0000 C CNN
	1    7800 3000
	1    0    0    -1  
$EndComp
$Comp
L GND #PWR07
U 1 1 5750CA7C
P 1350 2950
F 0 "#PWR07" H 1350 2700 50  0001 C CNN
F 1 "GND" H 1350 2800 50  0000 C CNN
F 2 "" H 1350 2950 50  0000 C CNN
F 3 "" H 1350 2950 50  0000 C CNN
	1    1350 2950
	1    0    0    -1  
$EndComp
$Comp
L VDD #PWR08
U 1 1 5750CC6F
P 1350 2600
F 0 "#PWR08" H 1350 2450 50  0001 C CNN
F 1 "VDD" H 1350 2750 50  0000 C CNN
F 2 "" H 1350 2600 50  0000 C CNN
F 3 "" H 1350 2600 50  0000 C CNN
	1    1350 2600
	1    0    0    -1  
$EndComp
Text Label 5050 4200 0    60   ~ 0
D9
$Comp
L YS-12V450A U1
U 1 1 5752EE24
P 2550 2700
F 0 "U1" H 2300 2950 50  0000 C CNN
F 1 "YS-12V450A" H 2650 2950 50  0000 C CNN
F 2 "Convert-ACDC:ACDC-YS-12V450A" H 2550 2850 50  0000 C CIN
F 3 "" H 2550 2750 50  0000 C CNN
	1    2550 2700
	1    0    0    -1  
$EndComp
NoConn ~ 3000 2700
$Comp
L +5V #PWR09
U 1 1 5752F499
P 3300 2500
F 0 "#PWR09" H 3300 2350 50  0001 C CNN
F 1 "+5V" H 3300 2640 50  0000 C CNN
F 2 "" H 3300 2500 50  0000 C CNN
F 3 "" H 3300 2500 50  0000 C CNN
	1    3300 2500
	1    0    0    -1  
$EndComp
$Comp
L +5V #PWR010
U 1 1 57532DB9
P 6000 2900
F 0 "#PWR010" H 6000 2750 50  0001 C CNN
F 1 "+5V" H 6000 3040 50  0000 C CNN
F 2 "" H 6000 2900 50  0000 C CNN
F 3 "" H 6000 2900 50  0000 C CNN
	1    6000 2900
	1    0    0    -1  
$EndComp
$Comp
L PWR_FLAG #FLG011
U 1 1 57535953
P 1600 2900
F 0 "#FLG011" H 1600 2995 50  0001 C CNN
F 1 "PWR_FLAG" H 1600 3080 50  0000 C CNN
F 2 "" H 1600 2900 50  0000 C CNN
F 3 "" H 1600 2900 50  0000 C CNN
	1    1600 2900
	-1   0    0    1   
$EndComp
$Comp
L PWR_FLAG #FLG012
U 1 1 57535A3D
P 1600 2650
F 0 "#FLG012" H 1600 2745 50  0001 C CNN
F 1 "PWR_FLAG" H 1600 2830 50  0000 C CNN
F 2 "" H 1600 2650 50  0000 C CNN
F 3 "" H 1600 2650 50  0000 C CNN
	1    1600 2650
	1    0    0    -1  
$EndComp
Wire Wire Line
	5650 1600 5650 1800
Connection ~ 5650 1700
Wire Wire Line
	5650 1150 5650 1300
Wire Wire Line
	4500 1700 4800 1700
Wire Wire Line
	5400 1700 5900 1700
Wire Wire Line
	6200 1700 7000 1700
Wire Wire Line
	6500 1800 6500 1700
Connection ~ 6500 1700
Wire Wire Line
	5550 4200 5700 4200
Wire Wire Line
	6000 4500 6000 4400
Wire Wire Line
	5250 4200 5050 4200
Wire Wire Line
	3950 1700 4000 1700
Wire Wire Line
	6000 3900 6000 4000
Wire Wire Line
	5750 3350 5750 3100
Wire Wire Line
	5750 3650 5750 3900
Wire Wire Line
	5750 3900 6400 3900
Wire Wire Line
	5750 3100 6400 3100
Wire Wire Line
	5650 2250 5650 2100
Wire Wire Line
	8700 2050 9200 2050
Wire Wire Line
	9200 2050 9200 2200
Wire Wire Line
	9200 2200 9400 2200
Wire Wire Line
	8700 1950 9300 1950
Wire Wire Line
	9300 1950 9300 2000
Wire Wire Line
	9300 2000 9400 2000
Wire Wire Line
	8700 1850 9300 1850
Wire Wire Line
	9300 1850 9300 1800
Wire Wire Line
	9300 1800 9400 1800
Wire Wire Line
	9700 1800 10050 1800
Wire Wire Line
	10050 1800 10050 1850
Wire Wire Line
	10050 1850 10200 1850
Wire Wire Line
	9700 2000 10050 2000
Wire Wire Line
	10050 2000 10050 1950
Wire Wire Line
	10050 1950 10200 1950
Wire Wire Line
	9700 2200 9900 2200
Wire Wire Line
	9900 2200 9900 2050
Wire Wire Line
	9900 2050 10200 2050
Wire Wire Line
	9700 2400 10000 2400
Wire Wire Line
	10000 2400 10000 2150
Wire Wire Line
	10000 2150 10200 2150
Wire Wire Line
	10200 2250 10200 2450
Connection ~ 6000 3100
Connection ~ 6000 3900
Wire Wire Line
	1200 2800 2100 2800
Wire Wire Line
	1350 2800 1350 2950
Wire Wire Line
	1600 2800 1600 2900
Connection ~ 1350 2800
Wire Wire Line
	1200 2700 2100 2700
Wire Wire Line
	1350 2700 1350 2600
Wire Wire Line
	8700 2150 9050 2150
Wire Wire Line
	1600 2700 1600 2650
Connection ~ 1350 2700
Connection ~ 1600 2800
Wire Wire Line
	2100 2800 2100 3050
Wire Wire Line
	2100 3050 3000 3050
Wire Wire Line
	3000 3050 3000 2800
Wire Wire Line
	2100 2700 2100 2600
Connection ~ 1600 2700
Wire Wire Line
	6500 2100 6500 2250
Wire Wire Line
	6000 2900 6000 3100
Wire Wire Line
	3000 2600 3300 2600
Wire Wire Line
	3300 2600 3300 2500
Wire Wire Line
	9050 2150 9050 2400
Wire Wire Line
	9050 2400 9400 2400
Wire Wire Line
	6900 3900 6900 4000
Wire Wire Line
	6750 3900 6750 4100
Wire Wire Line
	6750 3100 6750 2900
Wire Wire Line
	6900 3100 6900 3000
Wire Wire Line
	6750 2900 7600 2900
Wire Wire Line
	6900 3000 7600 3000
Wire Wire Line
	7050 3100 7600 3100
Wire Wire Line
	6750 4100 7600 4100
Wire Wire Line
	6900 4000 7600 4000
Wire Wire Line
	7050 3900 7600 3900
$Comp
L CONN_01X03 P3
U 1 1 5750AA25
P 7800 4000
F 0 "P3" H 7800 4200 50  0000 C CNN
F 1 "CONN_01X03" V 7900 4000 50  0000 C CNN
F 2 "Connect:bornier3" H 7800 4000 50  0001 C CNN
F 3 "" H 7800 4000 50  0000 C CNN
	1    7800 4000
	1    0    0    -1  
$EndComp
$Comp
L CONN_01X13 P4
U 1 1 5761B7EA
P 8500 1550
F 0 "P4" H 8500 2250 50  0000 C CNN
F 1 "CONN_01X13" V 8600 1550 50  0000 C CNN
F 2 "Pin_Headers:Pin_Header_Straight_1x13" H 8500 1550 50  0001 C CNN
F 3 "" H 8500 1550 50  0000 C CNN
	1    8500 1550
	-1   0    0    -1  
$EndComp
$Comp
L GND #PWR013
U 1 1 5761B8DC
P 9050 1050
F 0 "#PWR013" H 9050 800 50  0001 C CNN
F 1 "GND" H 9050 900 50  0000 C CNN
F 2 "" H 9050 1050 50  0000 C CNN
F 3 "" H 9050 1050 50  0000 C CNN
	1    9050 1050
	1    0    0    -1  
$EndComp
Wire Wire Line
	8700 1050 9050 1050
NoConn ~ 8700 1150
$Comp
L +5V #PWR014
U 1 1 5761B9E9
P 9250 1250
F 0 "#PWR014" H 9250 1100 50  0001 C CNN
F 1 "+5V" H 9250 1390 50  0000 C CNN
F 2 "" H 9250 1250 50  0000 C CNN
F 3 "" H 9250 1250 50  0000 C CNN
	1    9250 1250
	1    0    0    -1  
$EndComp
Wire Wire Line
	8700 1250 9250 1250
NoConn ~ 8700 1350
NoConn ~ 8700 1450
NoConn ~ 8700 1550
Wire Wire Line
	8700 1650 9050 1650
Text Label 8900 1650 0    60   ~ 0
A0
Wire Wire Line
	8700 1750 9050 1750
Text Label 8900 1750 0    60   ~ 0
D9
NoConn ~ 8700 950 
$EndSCHEMATC
