EESchema Schematic File Version 2
LIBS:power
LIBS:device
LIBS:transistors
LIBS:conn
LIBS:linear
LIBS:regul
LIBS:74xx
LIBS:cmos4000
LIBS:adc-dac
LIBS:memory
LIBS:xilinx
LIBS:microcontrollers
LIBS:dsp
LIBS:microchip
LIBS:analog_switches
LIBS:motorola
LIBS:texas
LIBS:intel
LIBS:audio
LIBS:interface
LIBS:digital-audio
LIBS:philips
LIBS:display
LIBS:cypress
LIBS:siliconi
LIBS:opto
LIBS:atmel
LIBS:contrib
LIBS:valves
LIBS:relays
LIBS:JourNuitKicad-cache
EELAYER 25 0
EELAYER END
$Descr A4 11693 8268
encoding utf-8
Sheet 1 1
Title "JourNuit"
Date ""
Rev ""
Comp ""
Comment1 ""
Comment2 ""
Comment3 ""
Comment4 ""
$EndDescr
$Comp
L R R1
U 1 1 57226DEA
P 3900 2100
F 0 "R1" V 3980 2100 50  0000 C CNN
F 1 "68k" V 3900 2100 50  0000 C CNN
F 2 "Resistors_ThroughHole:Resistor_Vertical_RM5mm" V 3830 2100 50  0001 C CNN
F 3 "" H 3900 2100 50  0000 C CNN
	1    3900 2100
	0    1    1    0   
$EndComp
$Comp
L R R3
U 1 1 57226EF9
P 4300 2350
F 0 "R3" V 4380 2350 50  0000 C CNN
F 1 "4.3k" V 4300 2350 50  0000 C CNN
F 2 "Resistors_ThroughHole:Resistor_Vertical_RM5mm" V 4230 2350 50  0001 C CNN
F 3 "" H 4300 2350 50  0000 C CNN
	1    4300 2350
	1    0    0    -1  
$EndComp
$Comp
L R R2
U 1 1 57226F4E
P 4300 1850
F 0 "R2" V 4380 1850 50  0000 C CNN
F 1 "4.3k" V 4300 1850 50  0000 C CNN
F 2 "Resistors_ThroughHole:Resistor_Vertical_RM5mm" V 4230 1850 50  0001 C CNN
F 3 "" H 4300 1850 50  0000 C CNN
	1    4300 1850
	1    0    0    -1  
$EndComp
$Comp
L GND #PWR01
U 1 1 57227071
P 4300 2650
F 0 "#PWR01" H 4300 2400 50  0001 C CNN
F 1 "GND" H 4300 2500 50  0000 C CNN
F 2 "" H 4300 2650 50  0000 C CNN
F 3 "" H 4300 2650 50  0000 C CNN
	1    4300 2650
	1    0    0    -1  
$EndComp
$Comp
L +5V #PWR02
U 1 1 572270C4
P 4300 1550
F 0 "#PWR02" H 4300 1400 50  0001 C CNN
F 1 "+5V" H 4300 1690 50  0000 C CNN
F 2 "" H 4300 1550 50  0000 C CNN
F 3 "" H 4300 1550 50  0000 C CNN
	1    4300 1550
	1    0    0    -1  
$EndComp
$Comp
L C C1
U 1 1 572270F1
P 3600 2100
F 0 "C1" H 3625 2200 50  0000 L CNN
F 1 "10nF 400V" V 3450 1950 50  0000 L CNN
F 2 "Capacitors_ThroughHole:C_Rect_L13_W4_P10" H 3638 1950 50  0001 C CNN
F 3 "" H 3600 2100 50  0000 C CNN
	1    3600 2100
	0    1    1    0   
$EndComp
$Comp
L VDD #PWR03
U 1 1 57227190
P 2600 2100
F 0 "#PWR03" H 2600 1950 50  0001 C CNN
F 1 "VDD" H 2600 2250 50  0000 C CNN
F 2 "" H 2600 2100 50  0000 C CNN
F 3 "" H 2600 2100 50  0000 C CNN
	1    2600 2100
	0    -1   -1   0   
$EndComp
$Comp
L R R4
U 1 1 57227586
P 4700 2100
F 0 "R4" V 4780 2100 50  0000 C CNN
F 1 "100k" V 4700 2100 50  0000 C CNN
F 2 "Resistors_ThroughHole:Resistor_Vertical_RM5mm" V 4630 2100 50  0001 C CNN
F 3 "" H 4700 2100 50  0000 C CNN
	1    4700 2100
	0    1    1    0   
$EndComp
$Comp
L C C2
U 1 1 572277E3
P 5150 2350
F 0 "C2" H 5175 2450 50  0000 L CNN
F 1 "10nF" H 5175 2250 50  0000 L CNN
F 2 "Capacitors_ThroughHole:C_Rect_L4_W2.5_P2.5" H 5188 2200 50  0001 C CNN
F 3 "" H 5150 2350 50  0000 C CNN
	1    5150 2350
	1    0    0    -1  
$EndComp
$Comp
L GND #PWR04
U 1 1 5722783A
P 5150 2650
F 0 "#PWR04" H 5150 2400 50  0001 C CNN
F 1 "GND" H 5150 2500 50  0000 C CNN
F 2 "" H 5150 2650 50  0000 C CNN
F 3 "" H 5150 2650 50  0000 C CNN
	1    5150 2650
	1    0    0    -1  
$EndComp
$Comp
L CONN_01X02 P1
U 1 1 57251923
P 1650 1550
F 0 "P1" H 1650 1700 50  0000 C CNN
F 1 "CONN_01X02" V 1750 1550 50  0000 C CNN
F 2 "Connect:bornier2" H 1650 1550 50  0001 C CNN
F 3 "" H 1650 1550 50  0000 C CNN
	1    1650 1550
	0    -1   -1   0   
$EndComp
$Comp
L CONN_01X02 P4
U 1 1 57251A4C
P 6950 3500
F 0 "P4" H 6950 3650 50  0000 C CNN
F 1 "CONN_01X02" V 7050 3500 50  0000 C CNN
F 2 "Connect:bornier2" H 6950 3500 50  0001 C CNN
F 3 "" H 6950 3500 50  0000 C CNN
	1    6950 3500
	1    0    0    1   
$EndComp
$Comp
L CONN_01X12 P5
U 1 1 57251B42
P 7000 2150
F 0 "P5" H 7000 2800 50  0000 C CNN
F 1 "CONN_01X12" V 7100 2150 50  0000 C CNN
F 2 "Pin_Headers:Pin_Header_Straight_1x12" H 7000 2150 50  0001 C CNN
F 3 "" H 7000 2150 50  0000 C CNN
	1    7000 2150
	1    0    0    -1  
$EndComp
$Comp
L R R5
U 1 1 572527DB
P 5400 4200
F 0 "R5" V 5480 4200 50  0000 C CNN
F 1 "R" V 5400 4200 50  0000 C CNN
F 2 "Resistors_ThroughHole:Resistor_Vertical_RM5mm" V 5330 4200 50  0001 C CNN
F 3 "" H 5400 4200 50  0000 C CNN
	1    5400 4200
	0    1    1    0   
$EndComp
$Comp
L GND #PWR05
U 1 1 57252851
P 6000 4500
F 0 "#PWR05" H 6000 4250 50  0001 C CNN
F 1 "GND" H 6000 4350 50  0000 C CNN
F 2 "" H 6000 4500 50  0000 C CNN
F 3 "" H 6000 4500 50  0000 C CNN
	1    6000 4500
	1    0    0    -1  
$EndComp
$Comp
L D D1
U 1 1 572534B1
P 5750 3500
F 0 "D1" H 5750 3600 50  0000 C CNN
F 1 "1N4148" H 5750 3400 50  0000 C CNN
F 2 "Diodes_ThroughHole:Diode_DO-41_SOD81_Vertical_AnodeUp" H 5750 3500 50  0001 C CNN
F 3 "" H 5750 3500 50  0000 C CNN
	1    5750 3500
	0    1    1    0   
$EndComp
Text Label 5650 2100 0    60   ~ 0
A0
$Comp
L FUSE F1
U 1 1 572543DC
P 2900 2100
F 0 "F1" H 3000 2150 50  0000 C CNN
F 1 "FUSE" H 2800 2050 50  0000 C CNN
F 2 "Fuse_Holders_and_Fuses:Fuseholder5x20_horiz_SemiClosed_Casing10x25mm" H 2900 2100 50  0001 C CNN
F 3 "" H 2900 2100 50  0000 C CNN
	1    2900 2100
	1    0    0    -1  
$EndComp
$Comp
L GND #PWR06
U 1 1 57254A5D
P 1150 2000
F 0 "#PWR06" H 1150 1750 50  0001 C CNN
F 1 "GND" H 1150 1850 50  0000 C CNN
F 2 "" H 1150 2000 50  0000 C CNN
F 3 "" H 1150 2000 50  0000 C CNN
	1    1150 2000
	1    0    0    -1  
$EndComp
$Comp
L VDD #PWR07
U 1 1 57254A8D
P 2150 2000
F 0 "#PWR07" H 2150 1850 50  0001 C CNN
F 1 "VDD" H 2150 2150 50  0000 C CNN
F 2 "" H 2150 2000 50  0000 C CNN
F 3 "" H 2150 2000 50  0000 C CNN
	1    2150 2000
	-1   0    0    1   
$EndComp
Text Label 6600 1600 0    60   ~ 0
RAW
$Comp
L GND #PWR08
U 1 1 572670D2
P 6650 1700
F 0 "#PWR08" H 6650 1450 50  0001 C CNN
F 1 "GND" H 6650 1550 50  0000 C CNN
F 2 "" H 6650 1700 50  0000 C CNN
F 3 "" H 6650 1700 50  0000 C CNN
	1    6650 1700
	0    1    1    0   
$EndComp
Text Label 6600 1800 0    60   ~ 0
RST
$Comp
L +5V #PWR09
U 1 1 57267184
P 6650 1900
F 0 "#PWR09" H 6650 1750 50  0001 C CNN
F 1 "+5V" H 6650 2040 50  0000 C CNN
F 2 "" H 6650 1900 50  0000 C CNN
F 3 "" H 6650 1900 50  0000 C CNN
	1    6650 1900
	0    -1   -1   0   
$EndComp
Text Label 6600 2000 0    60   ~ 0
A3
Text Label 6600 2100 0    60   ~ 0
A2
Text Label 6600 2200 0    60   ~ 0
A1
Text Label 6600 2300 0    60   ~ 0
A0
Text Label 6600 2400 0    60   ~ 0
13
Text Label 6600 2500 0    60   ~ 0
12
Text Label 6600 2600 0    60   ~ 0
11
Text Label 6600 2700 0    60   ~ 0
10
NoConn ~ 6550 2400
NoConn ~ 6550 2200
NoConn ~ 6550 2100
NoConn ~ 6550 2000
NoConn ~ 6550 1600
NoConn ~ 6550 1800
Text Label 5050 4200 0    60   ~ 0
10
$Comp
L RELAY_G5V-1NO K1
U 1 1 5727C4C8
P 6000 3500
F 0 "K1" H 5950 3900 70  0000 C CNN
F 1 "RELAY_G5V-1NO" H 6500 3250 70  0000 C CNN
F 2 "Relay:Relais_1NO" H 6000 3500 60  0001 C CNN
F 3 "" H 6000 3500 60  0000 C CNN
	1    6000 3500
	1    0    0    1   
$EndComp
$Comp
L +5V #PWR010
U 1 1 5727C6E8
P 6000 3050
F 0 "#PWR010" H 6000 2900 50  0001 C CNN
F 1 "+5V" H 6000 3190 50  0000 C CNN
F 2 "" H 6000 3050 50  0000 C CNN
F 3 "" H 6000 3050 50  0000 C CNN
	1    6000 3050
	1    0    0    -1  
$EndComp
$Comp
L CONN_01X02 P3
U 1 1 57280B2D
P 5950 2550
F 0 "P3" H 5950 2700 50  0000 C CNN
F 1 "CONN_01X02" V 6050 2550 50  0000 C CNN
F 2 "Pin_Headers:Pin_Header_Straight_1x02" H 5950 2550 50  0001 C CNN
F 3 "" H 5950 2550 50  0000 C CNN
	1    5950 2550
	-1   0    0    1   
$EndComp
Wire Wire Line
	4300 2000 4300 2200
Connection ~ 4300 2100
Wire Wire Line
	4300 1550 4300 1700
Wire Wire Line
	3150 2100 3450 2100
Wire Wire Line
	4050 2100 4550 2100
Wire Wire Line
	4850 2100 5650 2100
Wire Wire Line
	5150 2200 5150 2100
Connection ~ 5150 2100
Wire Wire Line
	5150 2500 5150 2650
Wire Wire Line
	5550 4200 5700 4200
Wire Wire Line
	6000 4500 6000 4400
Wire Wire Line
	2150 1950 2150 2000
Wire Wire Line
	5250 4200 5050 4200
Wire Wire Line
	6800 1600 6550 1600
Wire Wire Line
	6550 1800 6800 1800
Wire Wire Line
	6800 2000 6550 2000
Wire Wire Line
	6800 2100 6550 2100
Wire Wire Line
	6800 2200 6550 2200
Wire Wire Line
	6800 2300 6550 2300
Wire Wire Line
	6800 2400 6550 2400
Wire Wire Line
	6150 2500 6800 2500
Wire Wire Line
	6150 2600 6800 2600
Wire Wire Line
	6800 2700 6550 2700
Wire Wire Line
	2600 2100 2650 2100
Wire Wire Line
	6000 3900 6000 4000
Wire Wire Line
	5750 3350 5750 3100
Wire Wire Line
	5750 3650 5750 3900
Wire Wire Line
	5750 3900 6000 3900
Wire Wire Line
	6000 3050 6000 3100
Wire Wire Line
	6000 3100 5750 3100
Wire Wire Line
	4300 2650 4300 2500
Wire Wire Line
	6650 1700 6800 1700
Wire Wire Line
	6650 1900 6800 1900
$Comp
L PWR_FLAG #FLG011
U 1 1 5728FB5E
P 1850 2000
F 0 "#FLG011" H 1850 2095 50  0001 C CNN
F 1 "PWR_FLAG" H 1850 2180 50  0000 C CNN
F 2 "" H 1850 2000 50  0000 C CNN
F 3 "" H 1850 2000 50  0000 C CNN
	1    1850 2000
	-1   0    0    1   
$EndComp
Wire Wire Line
	1150 1950 1150 2000
Wire Wire Line
	1850 1800 1850 2000
Wire Wire Line
	1850 1950 2150 1950
Connection ~ 2150 1950
$Comp
L CONN_01X03 P2
U 1 1 57291946
P 5700 1450
F 0 "P2" H 5700 1650 50  0000 C CNN
F 1 "CONN_01X03" V 5800 1450 50  0000 C CNN
F 2 "Pin_Headers:Pin_Header_Straight_1x03" H 5700 1450 50  0001 C CNN
F 3 "" H 5700 1450 50  0000 C CNN
	1    5700 1450
	0    -1   -1   0   
$EndComp
$Comp
L GND #PWR012
U 1 1 572919BB
P 5700 1750
F 0 "#PWR012" H 5700 1500 50  0001 C CNN
F 1 "GND" H 5700 1600 50  0000 C CNN
F 2 "" H 5700 1750 50  0000 C CNN
F 3 "" H 5700 1750 50  0000 C CNN
	1    5700 1750
	1    0    0    -1  
$EndComp
$Comp
L +5V #PWR013
U 1 1 572919F3
P 5800 1750
F 0 "#PWR013" H 5800 1600 50  0001 C CNN
F 1 "+5V" H 5800 1890 50  0000 C CNN
F 2 "" H 5800 1750 50  0000 C CNN
F 3 "" H 5800 1750 50  0000 C CNN
	1    5800 1750
	-1   0    0    1   
$EndComp
$Comp
L PWR_FLAG #FLG014
U 1 1 57291A2B
P 6000 1750
F 0 "#FLG014" H 6000 1845 50  0001 C CNN
F 1 "PWR_FLAG" H 6000 1930 50  0000 C CNN
F 2 "" H 6000 1750 50  0000 C CNN
F 3 "" H 6000 1750 50  0000 C CNN
	1    6000 1750
	-1   0    0    1   
$EndComp
$Comp
L VDD #PWR015
U 1 1 57291B12
P 5550 1750
F 0 "#PWR015" H 5550 1600 50  0001 C CNN
F 1 "VDD" H 5550 1900 50  0000 C CNN
F 2 "" H 5550 1750 50  0000 C CNN
F 3 "" H 5550 1750 50  0000 C CNN
	1    5550 1750
	-1   0    0    1   
$EndComp
Wire Wire Line
	5550 1750 5550 1700
Wire Wire Line
	5550 1700 5600 1700
Wire Wire Line
	5600 1700 5600 1650
Wire Wire Line
	5700 1650 5700 1750
Wire Wire Line
	5800 1650 5800 1750
Wire Wire Line
	6000 1750 6000 1700
Wire Wire Line
	6000 1700 5800 1700
Connection ~ 5800 1700
$Comp
L PWR_FLAG #FLG016
U 1 1 572931C7
P 1450 2000
F 0 "#FLG016" H 1450 2095 50  0001 C CNN
F 1 "PWR_FLAG" H 1450 2180 50  0000 C CNN
F 2 "" H 1450 2000 50  0000 C CNN
F 3 "" H 1450 2000 50  0000 C CNN
	1    1450 2000
	-1   0    0    1   
$EndComp
Wire Wire Line
	1450 1800 1450 2000
Connection ~ 1150 1950
$Comp
L BC547 Q1
U 1 1 572B84EA
P 5900 4200
F 0 "Q1" H 6100 4275 50  0000 L CNN
F 1 "BC547" H 6100 4200 50  0000 L CNN
F 2 "TO_SOT_Packages_THT:TO-92_Inline_Wide" H 6100 4125 50  0001 L CIN
F 3 "" H 5900 4200 50  0000 L CNN
	1    5900 4200
	1    0    0    -1  
$EndComp
Wire Wire Line
	1850 1800 1700 1800
Wire Wire Line
	1700 1800 1700 1750
Connection ~ 1850 1950
Wire Wire Line
	1150 1950 1450 1950
Wire Wire Line
	1450 1800 1600 1800
Wire Wire Line
	1600 1800 1600 1750
Connection ~ 1450 1950
Wire Wire Line
	6750 3450 6500 3450
Wire Wire Line
	6750 3550 6500 3550
Wire Wire Line
	6500 3550 6500 3600
$EndSCHEMATC
